{
  "formatVersion": 1,
  "database": {
    "version": 1,
    "identityHash": "38dcd6291d3431d2784c4c24a8488eda",
    "entities": [
      {
        "tableName": "EmotiveFileHistory",
        "createSql": "CREATE TABLE IF NOT EXISTS `${TABLE_NAME}` (`order` INTEGER NOT NULL, `path` TEXT, PRIMARY KEY(`order`))",
        "fields": [
          {
            "fieldPath": "order",
            "columnName": "order",
            "affinity": "INTEGER",
            "notNull": true
          },
          {
            "fieldPath": "path",
            "columnName": "path",
            "affinity": "TEXT",
            "notNull": false
          }
        ],
        "primaryKey": {
          "columnNames": [
            "order"
          ],
          "autoGenerate": false
        },
        "indices": [],
        "foreignKeys": []
      }
    ],
    "views": [],
    "setupQueries": [
      "CREATE TABLE IF NOT EXISTS room_master_table (id INTEGER PRIMARY KEY,identity_hash TEXT)",
      "INSERT OR REPLACE INTO room_master_table (id,identity_hash) VALUES(42, '38dcd6291d3431d2784c4c24a8488eda')"
    ]
  }
}